<svg width="24" height="24" viewBox="0 0 24 24" fill="none" xmlns="http://www.w3.org/2000/svg">
<path d="M21.9208 13.265C21.9731 12.8507 22 12.4285 22 12C22 6.47715 17.5228 2 12 2C6.47715 2 2 6.47715 2 12C2 17.5228 6.47715 22 12 22C12.4354 22 12.8643 21.9722 13.285 21.9182M12 6V12L15.7384 13.8692M19 22V16M16 19H22" stroke="#0077FF" stroke-width="1.5" stroke-linecap="round" stroke-linejoin="round"/>
</svg>
