<svg width="60" height="48" viewBox="0 0 60 48" fill="none" xmlns="http://www.w3.org/2000/svg">
<path fill-rule="evenodd" clip-rule="evenodd" d="M40.6429 0.224179C40.0348 0.50039 39.5923 1.07461 39.4301 1.79789C39.264 2.53934 39.2617 4.83586 39.4261 5.74277C39.5531 6.44332 39.5473 6.47707 39.2079 7.01051C39.0161 7.31191 38.766 7.75641 38.6521 7.99805L38.4451 8.4375H29.8488C24.5095 8.4375 20.8256 8.48508 20.1255 8.56312C18.0438 8.79527 15.2427 9.67558 14.6801 10.2745C14.2684 10.7127 14.3245 11.4304 14.8041 11.8588C15.0063 12.0396 15.2975 12.1875 15.4512 12.1875C15.6049 12.1875 16.2156 12.0002 16.8084 11.7712C17.4013 11.5423 18.3689 11.2425 18.9588 11.1052C19.9936 10.8641 20.3441 10.8538 28.8791 10.8123L37.7268 10.7692L37.7421 12.2108C37.7786 15.6229 39.3063 18.4856 42.1008 20.3781C43.817 21.5404 45.1529 21.9189 47.8229 21.9995L49.833 22.0602L49.6103 22.7077C49.044 24.3538 47.8718 26.136 46.5296 27.3915C45.7737 28.0987 44.4629 29.0625 44.2571 29.0625C44.2002 29.0625 44.0287 28.7856 43.8761 28.4473C43.46 27.5246 43.108 27.1875 42.5604 27.1875C42.3104 27.1875 41.9994 27.2445 41.8693 27.3141C41.5634 27.4778 41.2682 28.1863 41.3691 28.5144C41.4122 28.6548 42.1603 30.2988 43.0315 32.168C44.5725 35.4743 44.6405 35.5943 45.5364 36.5938C46.0429 37.1587 46.4572 37.7017 46.4572 37.8002C46.4572 37.8988 46.3264 38.1102 46.1665 38.2702C45.8793 38.5574 45.8544 38.5604 44.0952 38.5284L42.3146 38.4961L35.903 30.1931C32.3766 25.6264 29.2349 21.6281 28.9215 21.3079C27.6598 20.0182 25.7298 19.014 23.8998 18.6949C22.6778 18.4818 22.1566 18.4697 21.8108 18.6465C21.0838 19.0184 20.9125 19.942 21.4677 20.4973C21.7453 20.7749 21.9186 20.831 22.7037 20.8973C26.3155 21.2026 29.062 23.9334 29.3114 27.4672C29.3996 28.7171 29.1405 29.919 28.5124 31.174C28.151 31.896 27.8189 32.3294 27.033 33.1048C26.1598 33.9663 26.0197 34.1589 26.0197 34.498C26.0197 34.9807 26.331 35.4805 26.7248 35.6303C26.8868 35.6918 27.6163 35.7422 28.3459 35.7422C29.9041 35.7422 30.5804 35.9201 31.4046 36.5467C32.0178 37.0128 32.7463 37.9828 32.7463 38.3331C32.7463 38.5474 32.5581 38.5547 27.0304 38.5547C23.7918 38.5547 20.884 38.502 20.3214 38.4329C16.5282 37.9678 13.1142 36.0237 10.8836 33.0585C7.83516 29.0064 7.19273 23.8566 9.15199 19.1773C9.49605 18.3555 9.44355 17.9468 8.93965 17.5227C8.50969 17.1609 7.93324 17.135 7.52145 17.4591C7.05023 17.8296 6.23578 20.0637 5.89723 21.9141C5.66063 23.2073 5.68816 26.4109 5.94633 27.6264C6.0593 28.1577 6.18106 28.6692 6.21703 28.7631C6.26367 28.8846 6.0641 29.0326 5.52375 29.2777C4.43449 29.7716 3.50285 30.4416 2.62359 31.3635C1.69875 32.3332 1.47926 32.6394 0.942891 33.708C0.234258 35.1202 0 36.1642 0 37.9102C0 39.1341 0.0513281 39.6134 0.261094 40.3475C1.19625 43.6209 3.6341 46.0429 7.02363 47.0658C7.68563 47.2656 8.70539 47.2801 24.4503 47.3136L41.1741 47.3491L41.5597 47.0037C41.9326 46.6697 41.9448 46.6305 41.923 45.829C41.882 44.3239 41.3339 42.816 40.3575 41.5218L39.8994 40.9147L43.2076 40.8772L46.5158 40.8398L47.137 40.4958C48.595 39.688 49.1739 37.8654 48.4335 36.4141C48.3081 36.1684 47.8458 35.587 47.4061 35.1223C46.7553 34.4346 46.4836 34.0179 45.9459 32.8833C45.5827 32.1165 45.2854 31.427 45.2854 31.3509C45.2854 31.275 45.6854 30.9593 46.1745 30.6496C47.3045 29.9337 48.9922 28.3355 49.884 27.1366C50.665 26.0869 51.5957 24.2504 51.9664 23.0273C52.1033 22.5762 52.2513 22.1132 52.2955 21.9986C52.3454 21.8688 52.7409 21.6636 53.3419 21.4555C54.8079 20.9479 55.8654 20.2656 57.0627 19.0548C58.5899 17.5105 59.4708 15.7962 59.8086 13.7109C60.1643 11.5154 59.6775 9.10512 58.4752 7.10836C58.1061 6.49547 58.0895 6.4234 58.2087 5.95195C58.3923 5.22516 58.3777 2.1559 58.1878 1.60125C57.8614 0.647695 57.0073 0 56.076 0C55.4651 0 53.586 0.955429 52.551 1.79227L51.7893 2.4082L48.7737 2.40094L45.7581 2.39356L45.3752 2.02898C44.8302 1.50996 43.3919 0.60961 42.5818 0.28043C41.7557 -0.0551952 41.288 -0.0687893 40.6429 0.224179ZM42.6863 2.96473C43.0291 3.17098 43.7145 3.70102 44.209 4.14234L45.1082 4.94484L46.105 4.84547C47.3887 4.7175 50.2167 4.71785 51.5061 4.84617L52.5122 4.94637L53.3225 4.22367C54.2215 3.42199 55.7961 2.3857 55.9228 2.5125C55.9676 2.55727 56.0467 3.43559 56.0467 3.43559C56.0467 3.43559 55.9931 4.87395 55.6373 6.6818C55.5945 6.89965 55.7227 7.18629 56.1277 7.77773C57.8231 10.254 58.0411 12.9703 56.7536 15.582C56.0734 16.962 54.8646 18.1706 53.4845 18.8511C51.9961 19.5851 51.178 19.7153 48.3908 19.6618C46.219 19.6202 45.984 19.5943 45.1875 19.309C44.005 18.8852 43.1406 18.3491 42.2989 17.5174C41.4213 16.65 40.832 15.6991 40.4115 14.4715C40.1428 13.687 40.0904 13.3357 40.0886 12.3047C40.0853 10.5136 40.4845 9.23531 41.4872 7.8266C42.0135 7.08715 42.0586 6.83684 41.8393 5.8725C41.7286 5.38594 41.6525 4.51863 41.6525 3.74367C41.6525 2.25445 41.5874 2.30356 42.6863 2.96473ZM44.758 9.72012C44.3238 9.89789 44.0602 10.3069 44.0602 10.8026C44.0602 11.1863 44.1309 11.3372 44.4403 11.6135C44.9605 12.0784 45.5307 12.0773 45.9975 11.6106C46.5662 11.0419 46.4475 10.1437 45.7564 9.78633C45.3803 9.5918 45.1146 9.57422 44.758 9.72012ZM51.8275 9.81C51.2815 10.1488 51.1234 10.7595 51.4289 11.3502C51.979 12.4139 53.6057 11.9406 53.6057 10.7168C53.6057 10.5199 53.4599 10.2605 53.2072 10.0078C52.7575 9.55805 52.332 9.49699 51.8275 9.81ZM10.4716 13.2332C9.58769 14.1171 10.5163 15.5878 11.6595 15.1143C12.1344 14.9176 12.3557 14.5721 12.3557 14.0275C12.3557 13.4075 11.8494 12.8906 11.2424 12.8906C10.9254 12.8906 10.7252 12.9796 10.4716 13.2332ZM47.5611 13.8086C46.7013 14.3475 46.744 15.2821 47.6722 16.2403C48.2147 16.8004 48.3412 16.8745 48.7491 16.8709C49.0031 16.8686 49.3239 16.8027 49.4617 16.7244C49.8118 16.5254 50.5461 15.6185 50.6311 15.2802C50.7442 14.8293 50.5794 14.2399 50.2547 13.9348C49.9929 13.6886 49.8238 13.6479 48.9382 13.6174C48.0969 13.5885 47.86 13.6213 47.5611 13.8086ZM35.5396 33.5415C37.6126 36.2305 39.3088 38.4586 39.3088 38.4927C39.3088 38.5268 38.3918 38.5547 37.271 38.5547H35.2334L35.1609 38.169C35.1212 37.9569 34.9032 37.3966 34.6768 36.924C33.9496 35.4067 32.3564 34.0699 30.7541 33.6327C30.4641 33.5536 30.1629 33.471 30.0847 33.4491C29.9931 33.4233 30.1069 33.1282 30.4058 32.6166C30.8834 31.7995 31.3922 30.4133 31.5169 29.5898C31.62 28.909 31.6983 28.56 31.7367 28.6092C31.7552 28.6329 33.4665 30.8524 35.5396 33.5415ZM7.36078 31.8457C8.52527 34.2421 10.6075 36.5964 12.9296 38.1423C14.7268 39.3387 16.4616 40.0685 18.7099 40.5738C19.7338 40.804 20.2579 40.8223 27.7072 40.8877L35.6174 40.957L36.534 41.3947C37.1562 41.6918 37.6506 42.0373 38.0734 42.4703C38.6869 43.0986 39.426 44.3631 39.426 44.7844C39.426 44.9926 38.9044 45 24.096 45C13.7845 45 8.53828 44.9592 8.07059 44.8754C7.14094 44.7089 5.40902 43.8527 4.65762 43.1883C3.95871 42.5701 3.1323 41.3653 2.76562 40.4297C2.04059 38.58 2.14289 36.5482 3.05426 34.6963C3.61676 33.5534 4.93184 32.2143 6.08613 31.6089C6.5373 31.3723 6.93504 31.1771 6.96996 31.1753C7.00488 31.1734 7.18078 31.475 7.36078 31.8457Z" fill="#0077FF"/>
</svg>
