<svg width="60" height="41" viewBox="0 0 60 41" fill="none" xmlns="http://www.w3.org/2000/svg">
<path fill-rule="evenodd" clip-rule="evenodd" d="M4.19503 0.240711C1.41241 1.2163 -0.164695 3.5536 0.0136642 6.4377C0.209133 9.59884 2.26355 12.2415 5.35566 13.3095C6.15792 13.5865 6.4564 13.6218 8.37862 13.6669L10.5116 13.7168L10.0569 14.3194C8.92437 15.8203 8.55499 17.0005 8.41156 19.5765C8.20413 23.3016 7.39964 26.0433 5.88968 28.1722C5.21878 29.1181 4.17488 30.0686 3.28765 30.5411C2.36034 31.035 2.04359 31.424 2.12175 31.9726C2.20249 32.5395 6.02948 40.407 6.3828 40.7324C6.66312 40.9906 6.72769 40.9961 9.48405 40.9961H12.299L12.6416 40.6535C12.8805 40.4145 12.9841 40.1951 12.9841 39.9275C12.9841 39.7167 12.5359 38.3985 11.988 36.9982C11.4401 35.5979 10.9919 34.4085 10.9919 34.355C10.9919 34.2661 13.7175 31.9534 13.9041 31.8839C13.9485 31.8674 14.8804 33.7831 15.9747 36.1411C17.0691 38.499 18.0904 40.5561 18.2442 40.7122L18.5239 40.9961H21.5637H24.6037L24.9462 40.6535C25.5343 40.0655 25.4656 39.8244 23.7104 36.3157L22.1319 33.1606L23.6321 30.7209C24.8066 28.8109 25.181 28.2868 25.357 28.3072C26.2001 28.4049 34.4565 29.7652 34.806 29.8642C35.6191 30.0942 35.6013 29.9775 35.6013 35.0896C35.6013 37.613 35.6341 39.8418 35.6742 40.0423C35.7143 40.2428 35.8797 40.5394 36.0418 40.7015L36.3364 40.9961H39.1371C42.2821 40.9961 42.4189 40.9645 42.6305 40.1922C42.6949 39.9576 42.8854 38.1308 43.0542 36.1328C43.2229 34.1347 43.3828 32.4769 43.4094 32.4486C43.436 32.4205 44.6116 33.1779 46.0219 34.1318L48.5861 35.8663L48.6269 36.8588C48.6659 37.8095 48.6837 37.8656 49.0504 38.1932L49.4332 38.5351H52.1833H54.9335L55.3162 38.1934L55.6989 37.8518L55.736 35.7755C55.7594 34.4586 55.7262 33.5863 55.6453 33.3908C55.5751 33.2213 53.6695 31.3693 51.4107 29.2756L47.3037 25.4687L47.6896 25.3112C48.2489 25.0829 49.6301 25.0071 50.3714 25.1639C50.7234 25.2384 51.6405 25.5983 52.4095 25.9636C53.6635 26.5595 53.8867 26.6282 54.5775 26.6306C55.604 26.6344 56.055 26.4597 57.1893 25.6186C59.3927 23.9849 59.9135 23.239 59.9127 21.7187C59.9122 20.8798 59.8605 20.6603 59.4214 19.631C59.1515 18.9983 58.8772 18.1915 58.8118 17.8381C58.5541 16.4439 58.0834 15.74 56.4941 14.3728C55.4554 13.4793 55.3552 13.3519 54.7634 12.1718C54.0753 10.7998 53.579 10.2549 52.9019 10.1278C51.952 9.94958 51.2716 10.3971 50.3872 11.7819L49.9977 12.3919L49.3981 12.1556C49.0684 12.0257 48.3737 11.8076 47.8543 11.6712C46.9644 11.4373 46.5641 11.4203 40.9143 11.3777L34.9189 11.3324L34.5303 11.6796C34.0088 12.1456 33.981 12.8274 34.4639 13.3105L34.786 13.6328L40.7307 13.6978C47.3748 13.7706 47.2561 13.757 49.287 14.6754C50.6805 15.3056 50.9752 15.1886 51.9904 13.6024C52.2066 13.2646 52.4201 12.9883 52.465 12.9883C52.5099 12.9883 52.7548 13.4158 53.0095 13.9384C53.4343 14.8104 53.574 14.9739 54.7094 15.9285C56.0472 17.0532 56.421 17.5704 56.5353 18.4543C56.5759 18.7674 56.8481 19.5924 57.1403 20.2876C57.8581 21.9954 57.8268 22.1215 56.4021 23.2709C55.822 23.7388 55.1506 24.1822 54.9103 24.2564C54.4986 24.3833 54.4132 24.36 53.4454 23.8577C51.7918 22.9996 50.9103 22.7726 49.2536 22.7783C47.9932 22.7827 47.7427 22.8202 46.8375 23.1399C44.4447 23.9849 42.5988 25.8443 41.6955 28.3194C41.293 29.4224 41.2153 29.9902 40.7984 34.873L40.4758 38.6523H39.2104H37.945L37.9439 34.3457C37.9428 30.0775 37.9403 30.0338 37.6687 29.4531C37.3331 28.7354 36.526 27.973 35.8287 27.7149C35.5426 27.6088 33.3308 27.2027 30.9138 26.8126C28.4968 26.4225 24.9109 25.8376 22.945 25.5131C19.0545 24.8707 18.3269 24.8391 17.4717 25.2754C17.202 25.4129 16.1084 26.4007 15.0143 27.4951C13.0805 29.4291 11.3466 30.9838 9.56292 32.3828C8.58991 33.146 8.373 33.4318 8.38718 33.932C8.39234 34.1112 8.76933 35.207 9.22495 36.3672C9.68058 37.5273 10.0536 38.516 10.0538 38.5644C10.0542 38.6128 9.55636 38.6523 8.94757 38.6523H7.84073L6.59609 36.1035C5.91159 34.7016 5.23894 33.2947 5.10136 32.977L4.85128 32.3994L5.1964 32.1567C5.91194 31.6536 7.37655 30.1471 7.92827 29.3467C9.62316 26.8874 10.5191 23.8539 10.752 19.7851C10.8107 18.7599 10.9371 17.7059 11.0422 17.3653C11.4764 15.9581 12.7584 14.6207 14.2468 14.0222C14.9019 13.7589 15.0378 13.751 20.0153 13.6927C23.8351 13.6478 25.1784 13.5954 25.374 13.4836C26.1199 13.0573 26.024 11.8956 25.2086 11.4785C25.0266 11.3855 22.3698 11.3476 16.0263 11.3476C6.23316 11.3476 6.31718 11.353 5.07394 10.6415C4.36917 10.238 3.39968 9.25981 2.98366 8.53255C2.55077 7.77552 2.28206 6.52606 2.36187 5.64059C2.44695 4.69583 2.85534 3.90294 3.60323 3.23052C4.93835 2.03016 6.79952 1.99524 7.95804 3.1486C8.5162 3.70442 8.69222 4.09219 8.82195 5.05102C8.93316 5.87321 9.30195 6.24997 9.99581 6.24997C10.4566 6.24997 10.5905 6.19524 10.84 5.9052C11.114 5.58669 11.1326 5.49223 11.0848 4.66571C10.983 2.90696 9.88191 1.30887 8.19886 0.476961C7.38898 0.0767656 7.23136 0.040906 6.13929 0.00856223C5.14964 -0.0206175 4.83241 0.0172344 4.19503 0.240711ZM29.2484 11.6872C28.9339 11.9682 28.8683 12.1117 28.8683 12.5195C28.8683 12.9273 28.9339 13.0708 29.2484 13.3518C29.6724 13.7306 30.0549 13.7779 30.5646 13.5144C31.628 12.9645 31.1525 11.3476 29.9273 11.3476C29.7629 11.3476 29.4574 11.5004 29.2484 11.6872ZM51.9489 17.6946C51.2257 18.0924 51.0799 18.9927 51.6469 19.5598C52.0913 20.0041 52.6664 20.0231 53.1576 19.6097C53.5971 19.2399 53.6982 18.8427 53.4836 18.3291C53.2232 17.7059 52.484 17.4002 51.9489 17.6946ZM49.3727 30.5783L53.4138 34.3402V35.2658V36.1914H52.1833H50.9528V35.5627C50.9528 35.1074 50.8869 34.8502 50.714 34.6302C50.5826 34.4632 48.9473 33.2865 47.0799 32.0153C44.131 30.0077 43.6941 29.6721 43.7559 29.4613C43.9263 28.88 44.4289 27.9046 44.8273 27.3823C45.0646 27.071 45.2752 26.8164 45.2953 26.8164C45.3153 26.8164 47.1501 28.5093 49.3727 30.5783ZM20.7771 27.536C21.6794 27.6747 22.4552 27.8207 22.5011 27.8604C22.5471 27.9 21.9274 29.0092 21.1242 30.3252C20.0473 32.0896 19.6638 32.8177 19.6638 33.0979C19.6638 33.3463 20.1094 34.3737 20.951 36.065L22.2382 38.6523L20.9803 38.6504L19.7224 38.6486L17.7888 34.4892C16.7253 32.2016 15.8404 30.2632 15.8224 30.1818C15.8043 30.1002 16.4157 29.4151 17.1809 28.6593C18.1791 27.6734 18.6519 27.2849 18.8544 27.2844C19.0095 27.2841 19.8747 27.3973 20.7771 27.536Z" fill="#0077FF"/>
</svg>
