<svg width="24" height="24" viewBox="0 0 24 24" fill="none" xmlns="http://www.w3.org/2000/svg">
<path fill-rule="evenodd" clip-rule="evenodd" d="M11.1492 1.01307C8.15683 1.29168 5.54433 2.60915 3.65815 4.79073C2.26288 6.40454 1.40117 8.27717 1.08254 10.388C0.973996 11.1069 0.972186 12.6436 1.07901 13.3355C1.26138 14.5165 1.58849 15.5683 2.10089 16.6211L2.32032 17.0719L1.66847 20.0272C1.30998 21.6526 1.02334 22.9891 1.03152 22.9973C1.03975 23.0055 1.12348 22.9943 1.21764 22.9725C1.31179 22.9508 2.65898 22.6437 4.21137 22.2902L7.0339 21.6476L7.44327 21.8317C8.53453 22.3224 9.71586 22.6422 10.8829 22.7625C11.6048 22.837 13.1476 22.7922 13.7888 22.6782C15.7548 22.3286 17.4367 21.5746 18.9488 20.3648C19.4193 19.9884 20.2262 19.1825 20.6015 18.7141C21.9091 17.0825 22.7369 15.1086 22.9551 13.1021C23.0152 12.5491 23.0149 11.2772 22.9545 10.7304C22.5913 7.4415 20.6895 4.45682 17.7883 2.62266C16.6288 1.88962 15.0672 1.32482 13.5623 1.09418C13.1242 1.02701 11.563 0.974558 11.1492 1.01307ZM12.8977 2.75313C14.9232 2.95054 16.8233 3.79861 18.2809 5.15583C19.8976 6.66121 20.9076 8.5649 21.2092 10.6754C21.3026 11.3285 21.3035 12.5112 21.2111 13.145C20.9673 14.818 20.2722 16.403 19.2185 17.689C18.9029 18.074 18.2073 18.7623 17.8284 19.0644C16.5303 20.0994 14.8804 20.7993 13.2262 21.0167C12.6627 21.0907 11.3969 21.1013 10.9045 21.036C9.82505 20.8929 8.8335 20.5963 7.88276 20.1321L7.26655 19.8312L5.27945 20.284C4.18655 20.533 3.28873 20.7319 3.28433 20.7258C3.27989 20.7199 3.46618 19.863 3.69827 18.8217C3.93037 17.7804 4.12135 16.8859 4.12273 16.8339C4.12406 16.7819 4.05499 16.6197 3.96915 16.4735C2.98126 14.7904 2.5456 12.7705 2.76464 10.8893C3.34677 5.89038 7.86492 2.26264 12.8977 2.75313ZM8.1427 7.18724C7.91836 7.29808 7.56345 7.68169 7.34472 8.04954C6.89316 8.80914 6.85278 9.78633 7.2332 10.7474C7.69325 11.9095 9.08482 13.6834 10.331 14.6963C11.2919 15.4774 12.4318 16.0272 13.864 16.4005C14.4967 16.5654 15.1447 16.58 15.5883 16.4393C16.1049 16.2755 16.7402 15.8219 16.9397 15.4745C17.1552 15.0993 17.2763 14.2561 17.139 14.0876C17.0753 14.0095 15.2937 13.123 14.9682 13.0075C14.6333 12.8886 14.5881 12.9096 14.2396 13.3462C13.5106 14.2596 13.4403 14.3188 13.183 14.2359C12.977 14.1696 12.2236 13.7974 11.9464 13.6249C11.1117 13.1058 10.2413 12.2129 9.70616 11.3267C9.48587 10.962 9.49815 10.9039 9.88176 10.4942C10.0792 10.2834 10.2529 10.0489 10.3202 9.90212L10.4316 9.65918L10.3442 9.42114C10.2961 9.29025 10.094 8.78779 9.89503 8.30462C9.62467 7.64808 9.49406 7.3844 9.37832 7.26116L9.2234 7.09623L8.77503 7.09628C8.40547 7.09628 8.29434 7.11228 8.1427 7.18724Z" fill="#0077FF"/>
</svg>
