<svg width="404" height="96" viewBox="0 0 404 96" fill="none" xmlns="http://www.w3.org/2000/svg">
<path d="M90.2354 73.5762C88.1351 73.5762 86.2645 73.2244 84.6236 72.5208C82.9921 71.808 81.7028 70.8303 80.7558 69.5876C79.8182 68.3357 79.3353 66.892 79.3071 65.2563H85.4393C85.4768 65.9417 85.7066 66.5448 86.1285 67.0656C86.5598 67.5773 87.1318 67.9748 87.8444 68.2581C88.557 68.5413 89.3587 68.683 90.2494 68.683C91.1777 68.683 91.9981 68.5231 92.7108 68.2032C93.4234 67.8834 93.9813 67.4402 94.3844 66.8737C94.7876 66.3072 94.9892 65.6538 94.9892 64.9137C94.9892 64.1644 94.7736 63.5019 94.3423 62.9263C93.9203 62.3414 93.3108 61.8846 92.5138 61.5556C91.7262 61.2267 90.7886 61.0622 89.7009 61.0622H87.0146V56.7035H89.7009C90.6198 56.7035 91.4309 56.5482 92.1341 56.2375C92.8467 55.9268 93.3999 55.4974 93.7937 54.9491C94.1875 54.3917 94.3844 53.7429 94.3844 53.0028C94.3844 52.2992 94.211 51.6824 93.8641 51.1524C93.5265 50.6133 93.0483 50.193 92.4295 49.8914C91.82 49.5899 91.1074 49.4391 90.2916 49.4391C89.4665 49.4391 88.7117 49.5853 88.0272 49.8777C87.3427 50.161 86.7942 50.5676 86.3817 51.0976C85.9691 51.6276 85.7488 52.2489 85.7206 52.9617H79.8838C79.9119 51.3443 80.3854 49.9188 81.3043 48.6853C82.2232 47.4517 83.4609 46.4876 85.0174 45.7932C86.5833 45.0896 88.3507 44.7378 90.3198 44.7378C92.3076 44.7378 94.0469 45.0896 95.5377 45.7932C97.0286 46.4968 98.1866 47.4471 99.0117 48.6441C99.8462 49.832 100.259 51.1661 100.249 52.6464C100.259 54.2181 99.7571 55.5293 98.7445 56.5802C97.7412 57.631 96.4332 58.298 94.8204 58.5813V58.8006C96.9395 59.0656 98.5523 59.7829 99.6587 60.9525C100.774 62.113 101.328 63.5659 101.318 65.3112C101.328 66.9103 100.854 68.3312 99.8978 69.5739C98.9508 70.8166 97.6428 71.7943 95.9737 72.5071C94.3047 73.2198 92.392 73.5762 90.2354 73.5762Z" fill="white"/>
<path d="M115.513 73.6036C113.328 73.6036 111.439 73.1513 109.845 72.2466C108.26 71.3329 107.037 70.0627 106.174 68.4362C105.312 66.8006 104.88 64.9046 104.88 62.7481C104.88 60.5733 105.312 58.6727 106.174 57.0462C107.037 55.4106 108.26 54.1404 109.845 53.2358C111.439 52.322 113.328 51.8651 115.513 51.8651C117.698 51.8651 119.582 52.322 121.167 53.2358C122.761 54.1404 123.989 55.4106 124.852 57.0462C125.715 58.6727 126.146 60.5733 126.146 62.7481C126.146 64.9046 125.715 66.8006 124.852 68.4362C123.989 70.0627 122.761 71.3329 121.167 72.2466C119.582 73.1513 117.698 73.6036 115.513 73.6036ZM115.541 69.0805C116.535 69.0805 117.365 68.8063 118.031 68.2581C118.696 67.7007 119.198 66.9422 119.536 65.9828C119.882 65.0233 120.056 63.9314 120.056 62.707C120.056 61.4825 119.882 60.3906 119.536 59.4311C119.198 58.4717 118.696 57.7132 118.031 57.1558C117.365 56.5984 116.535 56.3197 115.541 56.3197C114.538 56.3197 113.694 56.5984 113.01 57.1558C112.334 57.7132 111.823 58.4717 111.477 59.4311C111.139 60.3906 110.97 61.4825 110.97 62.707C110.97 63.9314 111.139 65.0233 111.477 65.9828C111.823 66.9422 112.334 67.7007 113.01 68.2581C113.694 68.8063 114.538 69.0805 115.541 69.0805Z" fill="white"/>
<path d="M139.803 73.6036C137.618 73.6036 135.729 73.1513 134.135 72.2466C132.55 71.3329 131.326 70.0627 130.464 68.4362C129.601 66.8006 129.17 64.9046 129.17 62.7481C129.17 60.5733 129.601 58.6727 130.464 57.0462C131.326 55.4106 132.55 54.1404 134.135 53.2358C135.729 52.322 137.618 51.8651 139.803 51.8651C141.987 51.8651 143.872 52.322 145.457 53.2358C147.051 54.1404 148.279 55.4106 149.142 57.0462C150.004 58.6727 150.436 60.5733 150.436 62.7481C150.436 64.9046 150.004 66.8006 149.142 68.4362C148.279 70.0627 147.051 71.3329 145.457 72.2466C143.872 73.1513 141.987 73.6036 139.803 73.6036ZM139.831 69.0805C140.825 69.0805 141.655 68.8063 142.32 68.2581C142.986 67.7007 143.488 66.9422 143.825 65.9828C144.172 65.0233 144.346 63.9314 144.346 62.707C144.346 61.4825 144.172 60.3906 143.825 59.4311C143.488 58.4717 142.986 57.7132 142.32 57.1558C141.655 56.5984 140.825 56.3197 139.831 56.3197C138.828 56.3197 137.984 56.5984 137.299 57.1558C136.624 57.7132 136.113 58.4717 135.766 59.4311C135.429 60.3906 135.26 61.4825 135.26 62.707C135.26 63.9314 135.429 65.0233 135.766 65.9828C136.113 66.9422 136.624 67.7007 137.299 68.2581C137.984 68.8063 138.828 69.0805 139.831 69.0805Z" fill="white"/>
<path d="M154.444 45.1216H161.955L169.887 63.9817H170.225L178.157 45.1216H185.668V73.1924H179.76V54.9217H179.521L172.067 73.0553H168.045L160.59 54.8532H160.351V73.1924H154.444V45.1216Z" fill="white"/>
<path d="M200.418 73.6036C198.196 73.6036 196.283 73.165 194.679 72.2878C193.085 71.4014 191.857 70.1496 190.994 68.5322C190.132 66.9057 189.701 64.9822 189.701 62.7618C189.701 60.5962 190.132 58.6955 190.994 57.0599C191.857 55.4243 193.071 54.1496 194.637 53.2358C196.212 52.322 198.06 51.8651 200.179 51.8651C201.604 51.8651 202.931 52.089 204.159 52.5368C205.397 52.9754 206.475 53.6378 207.394 54.5242C208.322 55.4106 209.044 56.5253 209.56 57.8686C210.076 59.2027 210.333 60.7652 210.333 62.5562V64.1598H192.092V60.5413H204.693C204.693 59.7007 204.506 58.956 204.131 58.3072C203.756 57.6584 203.235 57.1513 202.57 56.7858C201.913 56.4111 201.149 56.2238 200.277 56.2238C199.368 56.2238 198.561 56.4294 197.858 56.8406C197.164 57.2426 196.62 57.7863 196.227 58.4717C195.833 59.1478 195.631 59.9017 195.622 60.7332V64.1735C195.622 65.2152 195.819 66.1153 196.212 66.8737C196.616 67.6321 197.183 68.2169 197.914 68.6281C198.646 69.0393 199.513 69.2449 200.516 69.2449C201.182 69.2449 201.791 69.1536 202.345 68.9708C202.898 68.788 203.371 68.5139 203.765 68.1484C204.159 67.7829 204.459 67.3352 204.665 66.8052L210.207 67.1615C209.926 68.4591 209.349 69.5922 208.477 70.5607C207.614 71.5202 206.498 72.2695 205.129 72.8086C203.77 73.3386 202.199 73.6036 200.418 73.6036Z" fill="white"/>
<path d="M212.556 79.3603V68.5596H214.215C214.693 68.2672 215.078 67.8012 215.369 67.1615C215.669 66.5219 215.912 65.7681 216.1 64.9C216.297 64.0319 216.447 63.0953 216.55 62.0902C216.662 61.0759 216.761 60.0525 216.845 59.0199L217.408 52.1393H233.976V68.5596H237.323V79.3603H231.613V73.1924H218.406V79.3603H212.556ZM220.179 68.5596H228.322V56.635H222.499L222.274 59.0199C222.115 61.2678 221.885 63.1775 221.585 64.7492C221.285 66.3117 220.816 67.5819 220.179 68.5596Z" fill="white"/>
<path d="M261.448 57.0873V61.8434H249.029V57.0873H261.448ZM240.449 63.9954H246.511C246.614 65.6036 247.13 66.8143 248.058 67.6276C248.987 68.4408 250.36 68.8474 252.179 68.8474C253.661 68.8474 254.837 68.5093 255.709 67.8332C256.581 67.157 257.21 66.1838 257.594 64.9137C257.979 63.6344 258.171 62.1039 258.171 60.322V58.0468C258.171 56.2101 257.95 54.6613 257.51 53.4003C257.078 52.1301 256.417 51.1707 255.527 50.5219C254.645 49.8731 253.515 49.5488 252.137 49.5488C250.777 49.5488 249.699 49.7498 248.902 50.1518C248.105 50.5539 247.524 51.1296 247.158 51.8789C246.792 52.619 246.567 53.5145 246.483 54.5653H240.421C240.609 52.7195 241.153 51.0565 242.053 49.5762C242.962 48.0867 244.251 46.908 245.92 46.0399C247.599 45.1718 249.671 44.7378 252.137 44.7378C254.584 44.7378 256.708 45.2815 258.508 46.3689C260.309 47.4562 261.701 48.9959 262.686 50.9879C263.67 52.9799 264.162 55.3375 264.162 58.0605V60.3357C264.162 63.0588 263.679 65.4117 262.714 67.3946C261.757 69.3683 260.384 70.8943 258.593 71.9725C256.802 73.0416 254.664 73.5762 252.179 73.5762C249.807 73.5762 247.772 73.1741 246.075 72.37C244.378 71.5567 243.051 70.4328 242.095 68.9982C241.138 67.5545 240.59 65.8868 240.449 63.9954Z" fill="white"/>
<path d="M268.547 73.1924V52.1393H274.538V60.3083H276.226L282.105 52.1393H289.138L281.5 62.5836L289.222 73.1924H282.105L276.775 65.7224H274.538V73.1924H268.547Z" fill="white"/>
<path d="M300.625 73.6036C298.412 73.6036 296.509 73.1467 294.915 72.2329C293.33 71.31 292.111 70.0308 291.258 68.3951C290.414 66.7595 289.992 64.8771 289.992 62.7481C289.992 60.5916 290.419 58.7001 291.272 57.0736C292.135 55.438 293.358 54.1633 294.943 53.2495C296.527 52.3266 298.412 51.8651 300.597 51.8651C302.481 51.8651 304.132 52.1987 305.548 52.8657C306.963 53.5328 308.084 54.4694 308.909 55.6755C309.734 56.8817 310.189 58.298 310.273 59.9245H304.619C304.46 58.8737 304.038 58.0285 303.353 57.3888C302.678 56.7401 301.792 56.4157 300.695 56.4157C299.767 56.4157 298.956 56.6624 298.262 57.1558C297.578 57.6401 297.043 58.3483 296.659 59.2803C296.274 60.2124 296.082 61.3409 296.082 62.6658C296.082 64.0091 296.27 65.1513 296.645 66.0924C297.029 67.0336 297.568 67.7509 298.262 68.2444C298.956 68.7378 299.767 68.9845 300.695 68.9845C301.38 68.9845 301.994 68.8474 302.538 68.5733C303.091 68.2992 303.546 67.9017 303.902 67.3808C304.268 66.8509 304.507 66.2158 304.619 65.4757H310.273C310.179 67.0839 309.729 68.5002 308.923 69.7247C308.126 70.94 307.024 71.8903 305.618 72.5756C304.211 73.2609 302.547 73.6036 300.625 73.6036Z" fill="white"/>
<path d="M314.109 73.1924V52.1393H332.998V73.1924H327.274V56.7309H319.763V73.1924H314.109Z" fill="white"/>
<path d="M347.625 73.6036C345.403 73.6036 343.49 73.165 341.887 72.2878C340.293 71.4014 339.065 70.1496 338.202 68.5322C337.339 66.9057 336.908 64.9822 336.908 62.7618C336.908 60.5962 337.339 58.6955 338.202 57.0599C339.065 55.4243 340.279 54.1496 341.845 53.2358C343.42 52.322 345.267 51.8651 347.386 51.8651C348.812 51.8651 350.138 52.089 351.367 52.5368C352.604 52.9754 353.683 53.6378 354.601 54.5242C355.53 55.4106 356.252 56.5253 356.767 57.8686C357.283 59.2027 357.541 60.7652 357.541 62.5562V64.1598H339.299V60.5413H351.901C351.901 59.7007 351.714 58.956 351.338 58.3072C350.963 57.6584 350.443 57.1513 349.777 56.7858C349.121 56.4111 348.357 56.2238 347.485 56.2238C346.575 56.2238 345.769 56.4294 345.066 56.8406C344.372 57.2426 343.828 57.7863 343.434 58.4717C343.04 59.1478 342.839 59.9017 342.829 60.7332V64.1735C342.829 65.2152 343.026 66.1153 343.42 66.8737C343.823 67.6321 344.391 68.2169 345.122 68.6281C345.853 69.0393 346.721 69.2449 347.724 69.2449C348.39 69.2449 348.999 69.1536 349.552 68.9708C350.105 68.788 350.579 68.5139 350.973 68.1484C351.367 67.7829 351.667 67.3352 351.873 66.8052L357.414 67.1615C357.133 68.4591 356.556 69.5922 355.684 70.5607C354.822 71.5202 353.706 72.2695 352.337 72.8086C350.977 73.3386 349.407 73.6036 347.625 73.6036Z" fill="white"/>
<path d="M361.451 81.0873V52.1393H367.358V55.6755H367.625C367.888 55.109 368.268 54.5333 368.765 53.9485C369.271 53.3546 369.927 52.8611 370.734 52.4682C371.549 52.0662 372.562 51.8651 373.772 51.8651C375.347 51.8651 376.8 52.2672 378.132 53.0713C379.463 53.8663 380.527 55.0679 381.324 56.6761C382.121 58.2752 382.52 60.2809 382.52 62.6932C382.52 65.0416 382.131 67.0245 381.352 68.6418C380.584 70.2501 379.533 71.4699 378.202 72.3015C376.88 73.1239 375.398 73.535 373.758 73.535C372.595 73.535 371.606 73.3477 370.79 72.9731C369.984 72.5984 369.322 72.1279 368.807 71.5613C368.291 70.9856 367.897 70.4054 367.625 69.8206H367.442V81.0873H361.451ZM367.316 62.6658C367.316 63.9177 367.494 65.0096 367.85 65.9417C368.207 66.8737 368.722 67.6002 369.397 68.121C370.073 68.6327 370.893 68.8886 371.859 68.8886C372.834 68.8886 373.659 68.6281 374.334 68.1073C375.009 67.5773 375.52 66.8463 375.867 65.9143C376.224 64.9731 376.402 63.8903 376.402 62.6658C376.402 61.4505 376.228 60.3814 375.881 59.4585C375.534 58.5356 375.023 57.8137 374.348 57.2929C373.673 56.7721 372.843 56.5116 371.859 56.5116C370.884 56.5116 370.059 56.7629 369.383 57.2655C368.718 57.7681 368.207 58.4808 367.85 59.4037C367.494 60.3266 367.316 61.414 367.316 62.6658Z" fill="white"/>
<path d="M384.422 56.7309V52.1393H404V56.7309H397.038V73.1924H391.328V56.7309H384.422Z" fill="white"/>
<path fill-rule="evenodd" clip-rule="evenodd" d="M13.1813 0.678755C12.7071 3.55142 12.6207 3.65478 12.0164 2.07337C11.3003 0.198921 11.0301 1.04673 11.1194 4.88848L11.1819 7.58178L10.5442 8.24569C10.1935 8.61077 9.27002 9.35613 8.49191 9.90185C6.88925 11.0259 6.71836 11.2586 6.71836 12.3171C6.71836 12.8963 6.56952 13.2755 6.08418 13.9324C5.37767 14.8886 5.14648 15.0584 2.16378 16.8105C0.257044 17.9307 0.0635646 18.0929 0.0114602 18.6149C-0.0308064 19.0393 0.0402451 19.218 0.284735 19.3012C0.466554 19.3633 0.943876 19.7581 1.34541 20.1787C1.99489 20.8589 2.1962 20.9578 3.16724 21.0732C5.45273 21.3447 7.44691 22.0546 8.83952 23.0923C9.59413 23.6547 9.89181 24.8478 9.90019 27.3439C9.90639 29.1948 9.88762 29.2862 9.3234 30.1494C7.66025 32.6943 7.78486 32.2932 7.51067 35.9868C7.08692 41.6983 7.01823 44.8036 7.2558 47.5128C7.59357 51.3647 8.46696 55.7484 8.89673 55.7484C8.9849 55.7484 9.23431 55.4633 9.45111 55.1149C10.1835 53.9376 10.3618 54.2133 10.6442 56.9578C10.7074 57.5734 10.8599 58.2136 10.9829 58.3807C11.1922 58.665 11.2261 58.665 11.5131 58.38C11.8002 58.0947 11.8195 58.1092 11.8195 58.6089C11.8195 58.9021 11.8716 59.401 11.9354 59.7175C12.0341 60.2084 12.121 60.2848 12.5275 60.2379C12.9676 60.1871 13.0106 60.2446 13.0948 60.9974C13.1831 61.7871 13.205 61.8119 13.8113 61.8119C14.4336 61.8119 14.4387 61.8188 14.7607 63.0789C15.4932 65.9462 15.5251 66.626 15.0955 70.2285C14.8297 72.457 14.6545 75.3023 14.5716 78.7355C14.4837 82.3635 14.3781 84.0175 14.2152 84.31C13.8578 84.9518 13.1817 85.1171 11.4493 84.986C9.40374 84.8315 9.01023 84.9904 8.44327 86.2002C7.95284 87.2468 7.8663 88.2674 8.22647 88.7567C8.54675 89.1918 9.84535 89.4631 10.473 89.2262C10.7442 89.1236 11.2431 88.7983 11.5814 88.5033C12.1086 88.0433 12.3455 87.9662 13.2378 87.9639C14.6235 87.9604 15.0516 87.7096 15.7767 86.4764C16.4329 85.3602 16.5909 85.2371 17.9465 84.7853C19.0137 84.4298 19.3985 84.1171 19.5601 83.4734C19.627 83.207 19.7964 82.8625 19.9367 82.708C20.0768 82.5534 20.2861 81.7943 20.402 81.0214C20.5177 80.2483 20.6809 79.684 20.7647 79.7672C20.9664 79.9676 21.2812 82.8053 21.158 83.3143C21.0245 83.866 20.2582 84.6534 19.3203 85.2027C18.3949 85.7448 18.166 86.2178 18.3777 87.1501C18.6503 88.351 18.5616 88.3333 22.6787 88.0057C25.2061 87.8046 25.8099 87.5845 26.2626 86.6994C26.5538 86.1302 26.5814 85.5625 26.5359 81.0885L26.4853 76.111L26.9863 75.2806C27.2619 74.8239 27.4873 74.2883 27.4873 74.0905C27.4873 73.1357 29.9007 67.2579 31.86 63.4409C33.0863 61.0519 34.7655 58.2641 35.56 57.2981L35.9974 56.7663L36.4042 57.9808C36.8103 59.1932 36.8116 59.1946 37.1275 58.7841C37.865 57.8255 38.6178 56.628 39.6045 54.8434C41.0949 52.1475 42.0802 50.819 43.9448 48.9911L45.5757 47.3923L45.6072 43.923C45.6327 41.0981 45.7145 40.1008 46.0474 38.5533C47.1964 33.2117 49.1554 29.4337 52.4295 26.2452C54.9119 23.8275 57.3688 22.4659 60.9749 21.5089C63.0261 20.9646 67.7757 20.8398 70.3293 21.2629C76.5389 22.2919 84.227 25.8177 89.9268 30.2498L91.0614 31.1322L92.2952 30.2408C97.4541 26.5129 104.121 23.5419 109.446 22.598C112.179 22.1135 116.16 22.0762 118.447 22.5137C123.983 23.5729 129.191 26.8005 133.634 31.9261C136.124 34.7986 139.298 39.6116 140.422 42.2185C140.626 42.6913 140.823 43.0783 140.86 43.0783C140.994 43.0783 140.607 40.7738 140.169 38.9645C138.666 32.7543 134.96 26.5851 129.917 21.8973C124.586 16.9419 117.756 14.5223 111.018 15.2021C105.314 15.7775 99.4976 18.0049 93.5648 21.8854C92.1819 22.79 91.0143 23.5302 90.9702 23.5302C90.9261 23.5302 89.9348 22.8244 88.7674 21.962C83.1303 17.7971 77.1475 14.8711 72.002 13.7621C65.2495 12.3068 58.5811 13.1664 51.8088 16.3652C44.1509 19.9822 38.83 25.5384 35.9595 32.9149L35.3682 34.4344L34.8786 33.3721C34.2472 32.0017 33.8242 31.5704 32.7706 31.2227C31.8571 30.9213 31.3424 30.4728 30.9008 29.5937C30.7507 29.295 29.871 26.8515 28.9456 24.1637C25.1974 13.275 24.6295 12.244 19.2764 6.60654C17.9531 5.21283 16.1323 3.1563 15.2303 2.03626C14.3285 0.916409 13.5238 0 13.442 0C13.3604 0 13.2431 0.30553 13.1813 0.678755ZM62.805 35.1291C61.5117 36.5746 61.3714 36.6692 59.991 37.0265C58.7368 37.351 57.3794 38.0311 56.561 38.7449C56.2116 39.0499 55.3772 40.2514 54.7071 41.4151C52.2085 45.7537 51.1449 46.974 47.8235 49.312C45.3105 51.0811 44.6581 51.8902 42.2223 56.2593C40.8289 58.7584 39.133 61.0984 36.5356 64.105C35.4458 65.3668 34.713 66.453 33.9105 67.9965C32.4754 70.757 31.8828 72.5435 31.5813 75.0181C31.4476 76.117 31.1983 77.8345 31.0276 78.8349C30.74 80.5218 30.7387 80.7584 31.0107 82.0929C31.3625 83.8195 32.4565 86.1023 33.6013 87.4987C36.1049 90.552 40.1439 92.48 48.3473 94.5378C52.3478 95.5413 53.491 95.7176 57.3336 95.9232C63.6286 96.2602 71.764 95.4573 75.705 94.1103C76.9961 93.6689 78.4899 92.5611 79.225 91.4995C81.3073 88.4926 80.4086 84.548 77.2525 82.8414C75.4228 81.8518 73.8865 82.125 73.2889 83.5456C72.9298 84.3994 73.11 85.2499 73.8732 86.3054C75.2078 88.1512 75.267 88.5382 74.3758 89.5905C73.6961 90.3931 72.3106 91.0329 70.4 91.4266C67.0236 92.1222 57.9975 92.2632 55.767 91.655C54.5788 91.331 53.7495 90.619 53.5544 89.7556C53.2979 88.6196 53.5162 88.4741 55.265 88.6151C56.6761 88.7288 56.7947 88.7116 56.982 88.3639C57.4264 87.5387 57.0762 86.5164 56.2052 86.0965C55.8915 85.9452 55.3741 85.7263 55.0556 85.6103C54.2551 85.3187 53.9039 84.3792 53.9039 82.5297C53.9039 80.9141 54.4336 78.2217 55.1303 76.2958C56.1777 73.4003 58.7425 68.7759 60.6579 66.3292C62.8268 63.5584 63.4889 61.4543 63.3249 57.8511C63.2582 56.3841 63.0695 55.0398 62.7549 53.791C62.3042 52.0031 62.1712 50.4843 62.3931 49.6628C62.4763 49.3545 62.6835 49.2568 63.441 49.1684C65.0779 48.9773 66.3503 48.4564 66.6377 47.8596C66.7777 47.5693 67.2158 46.979 67.6117 46.5477C68.2601 45.8415 68.3193 45.6979 68.2093 45.0997C68.142 44.7346 67.3153 42.8834 66.3718 40.9861C64.6492 37.5221 64.2883 36.4377 64.2883 34.7276C64.2883 34.2434 64.2125 33.8472 64.12 33.8472C64.0272 33.8472 63.4355 34.4241 62.805 35.1291ZM58.6475 75.553C57.8277 77.3246 57.2777 79.0501 57.0274 80.636C56.9332 81.2333 56.8682 81.7324 56.8829 81.7449C56.8979 81.7573 57.6754 82.1943 58.6111 82.7156C62.6133 84.9457 70.5314 88.4376 71.097 88.2218C71.3255 88.1347 71.2734 87.9273 70.7908 87.0009C70.2599 85.9825 70.21 85.7428 70.2177 84.2541L70.226 82.6231L68.4625 81.3941C66.3125 79.8961 62.8272 77.1196 60.8414 75.3229L59.3701 73.9918L58.6475 75.553ZM82.8093 91.0604C82.628 91.5674 82.507 92.0094 82.5405 92.0426C82.7499 92.2505 92.1405 94.3836 92.2719 94.2531C92.3041 94.2211 91.7802 93.9604 91.1077 93.6736C90.4353 93.3867 88.4127 92.4739 86.6133 91.6453C84.8136 90.8166 83.2957 90.1386 83.2399 90.1386C83.1844 90.1386 82.9905 90.5535 82.8093 91.0604Z" fill="white"/>
</svg>
